Analise de Dados para as Ciencias Sociais: Calculando Estatisticas Resumidas
…
No funcionou. Qual foi o erro? Aqui, mutate_all no  suficientemente flexvel para pular as colunas que contm caractares infelizmente. Agora temos trs alternativas. Podemos usar select() para selecionar as colunas nmericos manualmente antes de rodar mutate_all():

flights %>%
    select(year, month, day, dep_time, sched_dep_time, dep_delay, arr_time,
        sched_arr_time, arr_delay, flight, air_time, distance, hour, minute) %>%
    mutate_all(scale)

Deu certo, mas um pouco chato para digitar. A segunda opo usa uma outra variadade de mutate se chama mutate_at(), que permite especificar as variveis dentro da funo (e dentro de uma mini-funo se chama vars()):

flights %>%
    mutate_at(vars(year, month, day, dep_time, sched_dep_time, dep_delay,
        arr_time, sched_arr_time, arr_delay, flight, air_time, distance,
        hour, minute), scale)

# A tibble: 336,776 x 20
   year[,1] month[,1] day[,1] dep_time[,1] sched_dep_time[,1]
      <dbl>     <dbl>   <dbl>        <dbl>              <dbl>
 1      NaN     -1.63   -1.68        -1.70              -1.77
 2      NaN     -1.63   -1.68        -1.67              -1.74
 3      NaN     -1.63   -1.68        -1.65              -1.72
 4      NaN     -1.63   -1.68        -1.65              -1.71
 5      NaN     -1.63   -1.68        -1.63              -1.59
 6      NaN     -1.63   -1.68        -1.63              -1.68
 7      NaN     -1.63   -1.68        -1.63              -1.59
 8      NaN     -1.63   -1.68        -1.62              -1.59
 9      NaN     -1.63   -1.68        -1.62              -1.59
10      NaN     -1.63   -1.68        -1.62              -1.59
# ... with 336,766 more rows, and 15 more variables:
#   dep_delay <dbl[,1]>, arr_time <dbl[,1]>,
#   sched_arr_time <dbl[,1]>, arr_delay <dbl[,1]>, carrier <chr>,
#   flight <dbl[,1]>, tailnum <chr>, origin <chr>, dest <chr>,
#   air_time <dbl[,1]>, distance <dbl[,1]>, hour <dbl[,1]>,
#   minute <dbl[,1]>, time_hour <dttm>, dep_delay_dobro <dbl>

A terceira opo  a mais eficiente e vai identificar automaticamente as colunas nmericas - esta variedade final de mutate, mutate_if() aceita um teste em vez de uma lista de variveis para ser transformadas. O teste  uma funo simples que devolve o resultado TRUE ou FALSE para cada coluna. Em nosso caso, queremos testar se a coluna seja nmerico, ento vamos usar o teste (a funo) is.numeric:

flights %>% mutate_if(is.numeric, scale)

# A tibble: 336,776 x 20
   year[,1] month[,1] day[,1] dep_time[,1] sched_dep_time[,1]
      <dbl>     <dbl>   <dbl>        <dbl>              <dbl>
 1      NaN     -1.63   -1.68        -1.70              -1.77
 2      NaN     -1.63   -1.68        -1.67              -1.74
 3      NaN     -1.63   -1.68        -1.65              -1.72
 4      NaN     -1.63   -1.68        -1.65              -1.71
 5      NaN     -1.63   -1.68        -1.63              -1.59
 6      NaN     -1.63   -1.68        -1.63              -1.68
 7      NaN     -1.63   -1.68        -1.63              -1.59
 8      NaN     -1.63   -1.68        -1.62              -1.59
 9      NaN     -1.63   -1.68        -1.62              -1.59
10      NaN     -1.63   -1.68        -1.62              -1.59
# ... with 336,766 more rows, and 15 more variables:
#   dep_delay <dbl[,1]>, arr_time <dbl[,1]>,
#   sched_arr_time <dbl[,1]>, arr_delay <dbl[,1]>, carrier <chr>,
#   flight <dbl[,1]>, tailnum <chr>, origin <chr>, dest <chr>,
#   air_time <dbl[,1]>, distance <dbl[,1]>, hour <dbl[,1]>,
#   minute <dbl[,1]>, time_hour <dttm>, dep_delay_dobro <dbl[,1]>
…
