Analise de Dados para as Ciencias Sociais: Mapas e An치lises Espaciais
…
O sf traz mais poder para os nossos tibbles, permitindo eles entenderem dados espaciais. Para facilitar, todas as nossas opera칞칫es com dados espaciais come칞am com st_ (e n칚o sf뵤bsurdamente). S칩 temos que indicar para o R quais vari치veis do tibble original s칚o a longitude e a latitude das observa칞칫es, usando a fun칞칚o st_as_sf(). O argumento coords= aceita um vetor com os nomes das duas colunas, longitude e latitude (nesta ordem, pois longitude 칠 o eixo X e latitude 칠 o eixo Y - se pensarmos nas coordenadas como pontos cartesianos).

airports_test <- airports %>% st_as_sf(coords=c("lon","lat"))

Como fica o nosso tibble airports_test agora? Abra o tibble para ver. Parece quase igual뵨 isso 칠 importante - dados espaciais n칚o s칚o muito diferentes de outros dados; eles ainda ficam armazenados num tibble. Cada observa칞칚o tem v치rias colunas de dados n칚o-espaciais (딵aa, 딽ame etc.). Mas agora h치 uma nova coluna tamb칠m, geometry. Ela codifica os dados de longitude e latitude num formato mais complexo que facilita opera칞칫es e visualiza칞칫es espaciais. Veja que o valor de cada observa칞칚o da geometry 칠 o par longitude-latitude e o tipo de dado espacial 칠 um ponto, <POINT>, (vamos ver alternativas em breve).

airports_test

Simple feature collection with 1458 features and 11 fields
Geometry type: POINT
Dimension:     XY
Bounding box:  xmin: -176.646 ymin: 19.72137 xmax: 174.1136 ymax: 72.27083
CRS:           NA
# A tibble: 1,458 x 12
   dest  name          alt    tz dst   tzone   caracteres string_field
   <chr> <chr>       <dbl> <dbl> <chr> <chr>        <int> <lgl>       
 1 04G   Lansdowne ~  1044    -5 A     Americ~         17 FALSE       
 2 06A   Moton Fiel~   264    -6 A     Americ~         29 TRUE        
 3 06C   Schaumburg~   801    -6 A     Americ~         19 FALSE       
 4 06N   Randall Ai~   523    -5 A     Americ~         15 FALSE       
 5 09J   Jekyll Isl~    11    -5 A     Americ~         21 FALSE       
 6 0A9   Elizabetht~  1593    -5 A     Americ~         30 FALSE       
 7 0G6   Williams C~   730    -5 A     Americ~         23 FALSE       
 8 0G7   Finger Lak~   492    -5 A     Americ~         29 FALSE       
 9 0P2   Shoestring~  1000    -5 U     Americ~         28 FALSE       
10 0S9   Jefferson ~   108    -8 A     Americ~         21 FALSE       
# ... with 1,448 more rows, and 4 more variables:
#   nome_parcial <list>, nome_parcial_primeiro <chr>,
#   nome_parcial_final <chr>, geometry <POINT>
…
Por que 4326? Idealmente, dever칤amos confirmar com o fornecedor dos dados o CRS em que eles foram salvos. Aqui, como a longitude e a latitude parecem estar em graus (entre -180 e 180) 칠 prov치vel que devemos usar o sistema WGS84 (um sistema de coordenadas geogr치ficas (n칚o projetadas)). Um atalho para especificar o WGS84 칠 usar o numero 4326 (tecnicamente, o n칰mero 딴psg) no argumento crs. Para verificar outros atalhos para sistemas de coordenados, pode aproveitar do site http://epsg.io/.

Abre o airports e vai aparecer uma linha de CRS agora na descri칞칚o acima da tabela:

airports

Simple feature collection with 1454 features and 11 fields
Geometry type: POINT
Dimension:     XY
Bounding box:  xmin: -176.646 ymin: 19.72137 xmax: -67.01269 ymax: 71.28545
Geodetic CRS:  WGS 84
# A tibble: 1,454 x 12
   dest  name          alt    tz dst   tzone   caracteres string_field
 * <chr> <chr>       <dbl> <dbl> <chr> <chr>        <int> <lgl>       
 1 04G   Lansdowne ~  1044    -5 A     Americ~         17 FALSE       
 2 06A   Moton Fiel~   264    -6 A     Americ~         29 TRUE        
 3 06C   Schaumburg~   801    -6 A     Americ~         19 FALSE       
 4 06N   Randall Ai~   523    -5 A     Americ~         15 FALSE       
 5 09J   Jekyll Isl~    11    -5 A     Americ~         21 FALSE       
 6 0A9   Elizabetht~  1593    -5 A     Americ~         30 FALSE       
 7 0G6   Williams C~   730    -5 A     Americ~         23 FALSE       
 8 0G7   Finger Lak~   492    -5 A     Americ~         29 FALSE       
 9 0P2   Shoestring~  1000    -5 U     Americ~         28 FALSE       
10 0S9   Jefferson ~   108    -8 A     Americ~         21 FALSE       
# ... with 1,444 more rows, and 4 more variables:
#   nome_parcial <list>, nome_parcial_primeiro <chr>,
#   nome_parcial_final <chr>, geometry <POINT [춿]>
…
